<svg xmlns="http://www.w3.org/2000/svg" version="1.1" height="100" width="100">
<defs>
<linearGradient id="grad1" x2="100%" y2="0%">
<stop stop-color="#7b7675" offset="0%"/>
<stop stop-color="#353130" offset="50%"/>
<stop stop-color="#7b7675" offset="100%"/>
</linearGradient></defs>
 <rect x="16" y="1" width="70" height="98" fill="url(#grad1)" stroke="#000000" stroke-width="2" rx="15"/>
 <path d="M16 40 85 40" stroke="#000" stroke-width="4"/>
 <path d="M40 2 40 39 62 39 62 2" fill="#a4a6a3" stroke="#000" stroke-width="3"/>
</svg>
